graph vx {
 "leaf01" [function="leaf" memory="1024" ]
 "leaf02" [function="leaf" memory="1024" ]
 "leaf03" [function="leaf" memory="1024" ]
 "leaf04" [function="leaf" memory="1024" ]
 "spine01" [function="spine" memory="1024" ]
 "spine02" [function="spine" memory="1024" ]
 "exit01" [function="exit" memory="1024" ]
 "exit02" [function="exit" memory="1024" ]
 "server01" [function="host" memory="1024" ]
 "server02" [function="host" ]
 "server03" [function="host" ]
 "server04" [function="host" ]
 "edge01" [function="host" ]
 "internet" [function="internet" os="CumulusCommunity/cumulus-vx" memory="1024" config="./helper_scripts/config_internet.sh" ]
 "oob-mgmt-switch" [function="oob-switch" memory="1024" ]
 "oob-mgmt-server" [function="oob-server" memory="1024" ]
 "netq-server" [function="netq" os="cumulus/netq241" memory="65536" cpus="8" config="./helper_scripts/netq_server_config.sh" ]

 "leaf01":"swp51" -- "spine01":"swp1"
 "leaf02":"swp51" -- "spine01":"swp2"
 "leaf03":"swp51" -- "spine01":"swp3"
 "leaf04":"swp51" -- "spine01":"swp4"
 "leaf01":"swp52" -- "spine02":"swp1"
 "leaf02":"swp52" -- "spine02":"swp2"
 "leaf03":"swp52" -- "spine02":"swp3"
 "leaf04":"swp52" -- "spine02":"swp4"

 "leaf01":"swp49" -- "leaf02":"swp49"
 "leaf01":"swp50" -- "leaf02":"swp50"
 "leaf03":"swp49" -- "leaf04":"swp49"
 "leaf03":"swp50" -- "leaf04":"swp50"

 "spine01":"swp31" -- "spine02":"swp31"
 "spine01":"swp32" -- "spine02":"swp32"
 "exit01":"swp49" -- "exit02":"swp49"
 "exit01":"swp50" -- "exit02":"swp50"

 "server01":"eth1" -- "leaf01":"swp1" [left_mac="00:03:00:11:11:01"]
 "server01":"eth2" -- "leaf02":"swp1" [left_mac="00:03:00:11:11:02"]
 "server02":"eth1" -- "leaf01":"swp2" [left_mac="00:03:00:22:22:01"]
 "server02":"eth2" -- "leaf02":"swp2" [left_mac="00:03:00:22:22:02"]
 "server03":"eth1" -- "leaf03":"swp1" [left_mac="00:03:00:33:33:01"]
 "server03":"eth2" -- "leaf04":"swp1" [left_mac="00:03:00:33:33:02"]
 "server04":"eth1" -- "leaf03":"swp2" [left_mac="00:03:00:44:44:01"]
 "server04":"eth2" -- "leaf04":"swp2" [left_mac="00:03:00:44:44:02"]

 "exit01":"swp51" -- "spine01":"swp30"
 "exit01":"swp52" -- "spine02":"swp30"
 "exit02":"swp51" -- "spine01":"swp29"
 "exit02":"swp52" -- "spine02":"swp29"
 "exit01":"swp45" -- "exit01":"swp46"
 "exit01":"swp47" -- "exit01":"swp48"
 "exit02":"swp45" -- "exit02":"swp46"
 "exit02":"swp47" -- "exit02":"swp48"

 "leaf01":"swp45" -- "leaf01":"swp46"
 "leaf01":"swp47" -- "leaf01":"swp48"
 "leaf02":"swp45" -- "leaf02":"swp46"
 "leaf02":"swp47" -- "leaf02":"swp48"
 "leaf03":"swp45" -- "leaf03":"swp46"
 "leaf03":"swp47" -- "leaf03":"swp48"
 "leaf04":"swp45" -- "leaf04":"swp46"
 "leaf04":"swp47" -- "leaf04":"swp48"

 "internet":"swp1" -- "exit01":"swp44"
 "internet":"swp2" -- "exit02":"swp44"

 "edge01":"eth1" -- "exit01":"swp1"
 "edge01":"eth2" -- "exit02":"swp1"

}
